^C:\PROJEKTI\GIT\PALCKE\MBSOFTWARE\RELEASE\CAMERA.OBJ|C:\PROJEKTI\GIT\PALCKE\MBSOFTWARE\RELEASE\CCIRCLE.OBJ|C:\PROJEKTI\GIT\PALCKE\MBSOFTWARE\RELEASE\CCUSTOMGRAPHICSITEM.OBJ|C:\PROJEKTI\GIT\PALCKE\MBSOFTWARE\RELEASE\CLINE.OBJ|C:\PROJEKTI\GIT\PALCKE\MBSOFTWARE\RELEASE\CONTROLCARDMB.OBJ|C:\PROJEKTI\GIT\PALCKE\MBSOFTWARE\RELEASE\CPOINTFLOAT.OBJ|C:\PROJEKTI\GIT\PALCKE\MBSOFTWARE\RELEASE\CRECTROTATED.OBJ|C:\PROJEKTI\GIT\PALCKE\MBSOFTWARE\RELEASE\DLGTYPES.OBJ|C:\PROJEKTI\GIT\PALCKE\MBSOFTWARE\RELEASE\IMAGEPROCESSING.OBJ|C:\PROJEKTI\GIT\PALCKE\MBSOFTWARE\RELEASE\IMAGINGSOURCE.OBJ|C:\PROJEKTI\GIT\PALCKE\MBSOFTWARE\RELEASE\LOGINWINDOW.OBJ|C:\PROJEKTI\GIT\PALCKE\MBSOFTWARE\RELEASE\MAIN.OBJ|C:\PROJEKTI\GIT\PALCKE\MBSOFTWARE\RELEASE\MBSOFTWARE.OBJ|C:\PROJEKTI\GIT\PALCKE\MBSOFTWARE\RELEASE\MBSOFTWARE.RES|C:\PROJEKTI\GIT\PALCKE\MBSOFTWARE\RELEASE\MEASURAND.OBJ|C:\PROJEKTI\GIT\PALCKE\MBSOFTWARE\RELEASE\MEMORYBUFFER.OBJ|C:\PROJEKTI\GIT\PALCKE\MBSOFTWARE\RELEASE\MOC_CAMERA.OBJ|C:\PROJEKTI\GIT\PALCKE\MBSOFTWARE\RELEASE\MOC_CONTROLCARDMB.OBJ|C:\PROJEKTI\GIT\PALCKE\MBSOFTWARE\RELEASE\MOC_DLGTYPES.OBJ|C:\PROJEKTI\GIT\PALCKE\MBSOFTWARE\RELEASE\MOC_IMAGEPROCESSING.OBJ|C:\PROJEKTI\GIT\PALCKE\MBSOFTWARE\RELEASE\MOC_LOGINWINDOW.OBJ|C:\PROJEKTI\GIT\PALCKE\MBSOFTWARE\RELEASE\MOC_MBSOFTWARE.OBJ|C:\PROJEKTI\GIT\PALCKE\MBSOFTWARE\RELEASE\MOC_MEASURAND.OBJ|C:\PROJEKTI\GIT\PALCKE\MBSOFTWARE\RELEASE\MOC_POINTGRAY.OBJ|C:\PROJEKTI\GIT\PALCKE\MBSOFTWARE\RELEASE\MOC_SERIAL.OBJ|C:\PROJEKTI\GIT\PALCKE\MBSOFTWARE\RELEASE\MOC_SMCDRIVE.OBJ|C:\PROJEKTI\GIT\PALCKE\MBSOFTWARE\RELEASE\MOC_STATUSBOX.OBJ|C:\PROJEKTI\GIT\PALCKE\MBSOFTWARE\RELEASE\MOC_TYPES.OBJ|C:\PROJEKTI\GIT\PALCKE\MBSOFTWARE\RELEASE\PCIE.OBJ|C:\PROJEKTI\GIT\PALCKE\MBSOFTWARE\RELEASE\POINTGRAY.OBJ|C:\PROJEKTI\GIT\PALCKE\MBSOFTWARE\RELEASE\QRC_MBSOFTWARE.OBJ|C:\PROJEKTI\GIT\PALCKE\MBSOFTWARE\RELEASE\SERIAL.OBJ|C:\PROJEKTI\GIT\PALCKE\MBSOFTWARE\RELEASE\SIGNALS.OBJ|C:\PROJEKTI\GIT\PALCKE\MBSOFTWARE\RELEASE\SMCDRIVE.OBJ|C:\PROJEKTI\GIT\PALCKE\MBSOFTWARE\RELEASE\STATUSBOX.OBJ|C:\PROJEKTI\GIT\PALCKE\MBSOFTWARE\RELEASE\STDAFX.OBJ|C:\PROJEKTI\GIT\PALCKE\MBSOFTWARE\RELEASE\TIMER.OBJ|C:\PROJEKTI\GIT\PALCKE\MBSOFTWARE\RELEASE\TYPES.OBJ
C:\QT\5.13.0\MSVC2017\LIB\QTMAIN.LIB
C:\QT\5.13.0\MSVC2017\LIB\QT5CORE.LIB
C:\QT\5.13.0\MSVC2017\LIB\QT5GUI.LIB
C:\QT\5.13.0\MSVC2017\LIB\QT5MULTIMEDIA.LIB
C:\QT\5.13.0\MSVC2017\LIB\QT5MULTIMEDIAWIDGETS.LIB
C:\QT\5.13.0\MSVC2017\LIB\QT5NETWORK.LIB
C:\QT\5.13.0\MSVC2017\LIB\QT5SERIALPORT.LIB
C:\QT\5.13.0\MSVC2017\LIB\QT5UITOOLS.LIB
C:\QT\5.13.0\MSVC2017\LIB\QT5WIDGETS.LIB
C:\PROJEKTI\OPENCV_3.4.6\BUILD\X86\VC15\LIB\OPENCV_WORLD346.LIB
C:\PROJEKTI\GIT\PALCKE\MBSOFTWARE\LIB\TVICHW32.LIB
C:\WSC4C\APPS\WSC32.LIB
C:\PROGRAM FILES (X86)\POINT GREY RESEARCH\FLYCAPTURE2\LIB\VS2015\FLYCAPTURE2D_V140.LIB
C:\PROGRAM FILES (X86)\POINT GREY RESEARCH\FLYCAPTURE2\LIB\VS2015\FLYCAPTURE2GUID_V140.LIB
C:\PROJEKTI\GIT\PALCKE\MBSOFTWARE\LIB\VCAIOWDM.LIB
C:\PROGRAM FILES (X86)\WINDOWS KITS\10\LIB\10.0.17763.0\UM\X86\KERNEL32.LIB
C:\PROGRAM FILES (X86)\WINDOWS KITS\10\LIB\10.0.17763.0\UM\X86\USER32.LIB
C:\PROGRAM FILES (X86)\WINDOWS KITS\10\LIB\10.0.17763.0\UM\X86\GDI32.LIB
C:\PROGRAM FILES (X86)\WINDOWS KITS\10\LIB\10.0.17763.0\UM\X86\WINSPOOL.LIB
C:\PROGRAM FILES (X86)\WINDOWS KITS\10\LIB\10.0.17763.0\UM\X86\COMDLG32.LIB
C:\PROGRAM FILES (X86)\WINDOWS KITS\10\LIB\10.0.17763.0\UM\X86\ADVAPI32.LIB
C:\PROGRAM FILES (X86)\WINDOWS KITS\10\LIB\10.0.17763.0\UM\X86\SHELL32.LIB
C:\PROGRAM FILES (X86)\WINDOWS KITS\10\LIB\10.0.17763.0\UM\X86\OLE32.LIB
C:\PROGRAM FILES (X86)\WINDOWS KITS\10\LIB\10.0.17763.0\UM\X86\OLEAUT32.LIB
C:\PROGRAM FILES (X86)\WINDOWS KITS\10\LIB\10.0.17763.0\UM\X86\UUID.LIB
C:\PROGRAM FILES (X86)\WINDOWS KITS\10\LIB\10.0.17763.0\UM\X86\ODBC32.LIB
C:\PROGRAM FILES (X86)\WINDOWS KITS\10\LIB\10.0.17763.0\UM\X86\ODBCCP32.LIB
C:\PROJEKTI\GIT\PALCKE\MBSOFTWARE\RELEASE\MBSOFTWARE.RES
C:\PROJEKTI\GIT\PALCKE\MBSOFTWARE\RELEASE\CAMERA.OBJ
C:\PROJEKTI\GIT\PALCKE\MBSOFTWARE\RELEASE\CCIRCLE.OBJ
C:\PROJEKTI\GIT\PALCKE\MBSOFTWARE\RELEASE\CCUSTOMGRAPHICSITEM.OBJ
C:\PROJEKTI\GIT\PALCKE\MBSOFTWARE\RELEASE\CONTROLCARDMB.OBJ
C:\PROJEKTI\GIT\PALCKE\MBSOFTWARE\RELEASE\CPOINTFLOAT.OBJ
C:\PROJEKTI\GIT\PALCKE\MBSOFTWARE\RELEASE\CRECTROTATED.OBJ
C:\PROJEKTI\GIT\PALCKE\MBSOFTWARE\RELEASE\DLGTYPES.OBJ
C:\PROJEKTI\GIT\PALCKE\MBSOFTWARE\RELEASE\IMAGEPROCESSING.OBJ
C:\PROJEKTI\GIT\PALCKE\MBSOFTWARE\RELEASE\IMAGINGSOURCE.OBJ
C:\PROJEKTI\GIT\PALCKE\MBSOFTWARE\RELEASE\CLINE.OBJ
C:\PROJEKTI\GIT\PALCKE\MBSOFTWARE\RELEASE\LOGINWINDOW.OBJ
C:\PROJEKTI\GIT\PALCKE\MBSOFTWARE\RELEASE\MAIN.OBJ
C:\PROJEKTI\GIT\PALCKE\MBSOFTWARE\RELEASE\MBSOFTWARE.OBJ
C:\PROJEKTI\GIT\PALCKE\MBSOFTWARE\RELEASE\MEASURAND.OBJ
C:\PROJEKTI\GIT\PALCKE\MBSOFTWARE\RELEASE\MEMORYBUFFER.OBJ
C:\PROJEKTI\GIT\PALCKE\MBSOFTWARE\RELEASE\PCIE.OBJ
C:\PROJEKTI\GIT\PALCKE\MBSOFTWARE\RELEASE\POINTGRAY.OBJ
C:\PROJEKTI\GIT\PALCKE\MBSOFTWARE\RELEASE\SERIAL.OBJ
C:\PROJEKTI\GIT\PALCKE\MBSOFTWARE\RELEASE\SIGNALS.OBJ
C:\PROJEKTI\GIT\PALCKE\MBSOFTWARE\RELEASE\SMCDRIVE.OBJ
C:\PROJEKTI\GIT\PALCKE\MBSOFTWARE\RELEASE\STATUSBOX.OBJ
C:\PROJEKTI\GIT\PALCKE\MBSOFTWARE\RELEASE\STDAFX.OBJ
C:\PROJEKTI\GIT\PALCKE\MBSOFTWARE\RELEASE\TIMER.OBJ
C:\PROJEKTI\GIT\PALCKE\MBSOFTWARE\RELEASE\TYPES.OBJ
C:\PROJEKTI\GIT\PALCKE\MBSOFTWARE\RELEASE\QRC_MBSOFTWARE.OBJ
C:\PROJEKTI\GIT\PALCKE\MBSOFTWARE\RELEASE\MOC_MBSOFTWARE.OBJ
C:\PROJEKTI\GIT\PALCKE\MBSOFTWARE\RELEASE\MOC_TYPES.OBJ
C:\PROJEKTI\GIT\PALCKE\MBSOFTWARE\RELEASE\MOC_IMAGEPROCESSING.OBJ
C:\PROJEKTI\GIT\PALCKE\MBSOFTWARE\RELEASE\MOC_CAMERA.OBJ
C:\PROJEKTI\GIT\PALCKE\MBSOFTWARE\RELEASE\MOC_CONTROLCARDMB.OBJ
C:\PROJEKTI\GIT\PALCKE\MBSOFTWARE\RELEASE\MOC_DLGTYPES.OBJ
C:\PROJEKTI\GIT\PALCKE\MBSOFTWARE\RELEASE\MOC_MEASURAND.OBJ
C:\PROJEKTI\GIT\PALCKE\MBSOFTWARE\RELEASE\MOC_SERIAL.OBJ
C:\PROJEKTI\GIT\PALCKE\MBSOFTWARE\RELEASE\MOC_SMCDRIVE.OBJ
C:\PROJEKTI\GIT\PALCKE\MBSOFTWARE\RELEASE\MOC_POINTGRAY.OBJ
C:\PROJEKTI\GIT\PALCKE\MBSOFTWARE\RELEASE\MOC_STATUSBOX.OBJ
C:\PROJEKTI\GIT\PALCKE\MBSOFTWARE\RELEASE\MOC_LOGINWINDOW.OBJ
C:\WINDOWS\GLOBALIZATION\SORTING\SORTDEFAULT.NLS
C:\PROGRAM FILES (X86)\WINDOWS KITS\10\LIB\10.0.17763.0\UM\X86\WS2_32.LIB
C:\PROGRAM FILES (X86)\MICROSOFT VISUAL STUDIO\2017\COMMUNITY\VC\TOOLS\MSVC\14.16.27023\LIB\X86\MSVCPRT.LIB
C:\PROGRAM FILES (X86)\MICROSOFT VISUAL STUDIO\2017\COMMUNITY\VC\TOOLS\MSVC\14.16.27023\LIB\X86\MSVCRT.LIB
C:\PROGRAM FILES (X86)\MICROSOFT VISUAL STUDIO\2017\COMMUNITY\VC\TOOLS\MSVC\14.16.27023\LIB\X86\OLDNAMES.LIB
C:\PROGRAM FILES (X86)\MICROSOFT VISUAL STUDIO\2017\COMMUNITY\VC\TOOLS\MSVC\14.16.27023\LIB\X86\COMSUPPW.LIB
C:\USERS\PALCKE\DOCUMENTS\IC IMAGING CONTROL 3.4\CLASSLIB\WIN32\RELEASE\TIS_UDSHL11.LIB
C:\PROGRAM FILES (X86)\WINDOWS KITS\10\LIB\10.0.17763.0\UM\X86\WINMM.LIB
C:\PROGRAM FILES (X86)\MICROSOFT VISUAL STUDIO\2017\COMMUNITY\VC\TOOLS\MSVC\14.16.27023\LIB\X86\VCRUNTIME.LIB
C:\PROGRAM FILES (X86)\WINDOWS KITS\10\LIB\10.0.17763.0\UCRT\X86\UCRT.LIB
C:\PROGRAM FILES (X86)\WINDOWS KITS\10\BIN\10.0.17763.0\X86\RC.EXE
C:\PROGRAM FILES (X86)\MICROSOFT VISUAL STUDIO\2017\COMMUNITY\VC\TOOLS\MSVC\14.16.27023\BIN\HOSTX86\X86\CVTRES.EXE
C:\WINDOWS\SYSTEM32\TZRES.DLL
