^C:\PROJEKTI\UNIVERSALSOFTWARE\MBSOFTWARE\MBSOFTWARE.H
C:\PROJEKTI\UNIVERSALSOFTWARE\MBSOFTWARE\.\GENERATEDFILES\DEBUG\MOC_MBSOFTWARE.CPP
^C:\PROJEKTI\UNIVERSALSOFTWARE\MBSOFTWARE\TYPES.H
C:\PROJEKTI\UNIVERSALSOFTWARE\MBSOFTWARE\.\GENERATEDFILES\DEBUG\MOC_TYPES.CPP
^C:\PROJEKTI\UNIVERSALSOFTWARE\MBSOFTWARE\IMAGEPROCESSING.H
C:\PROJEKTI\UNIVERSALSOFTWARE\MBSOFTWARE\.\GENERATEDFILES\DEBUG\MOC_IMAGEPROCESSING.CPP
^C:\PROJEKTI\UNIVERSALSOFTWARE\MBSOFTWARE\CAMERA.H
C:\PROJEKTI\UNIVERSALSOFTWARE\MBSOFTWARE\.\GENERATEDFILES\DEBUG\MOC_CAMERA.CPP
^C:\PROJEKTI\UNIVERSALSOFTWARE\MBSOFTWARE\CONTROLCARDMB.H
C:\PROJEKTI\UNIVERSALSOFTWARE\MBSOFTWARE\.\GENERATEDFILES\DEBUG\MOC_CONTROLCARDMB.CPP
^C:\PROJEKTI\UNIVERSALSOFTWARE\MBSOFTWARE\ABOUTUS.H
C:\PROJEKTI\UNIVERSALSOFTWARE\MBSOFTWARE\.\GENERATEDFILES\DEBUG\MOC_ABOUTUS.CPP
^C:\PROJEKTI\UNIVERSALSOFTWARE\MBSOFTWARE\CONTROLLPT.H
C:\PROJEKTI\UNIVERSALSOFTWARE\MBSOFTWARE\.\GENERATEDFILES\DEBUG\MOC_CONTROLLPT.CPP
^C:\PROJEKTI\UNIVERSALSOFTWARE\MBSOFTWARE\DLGTYPES.H
C:\PROJEKTI\UNIVERSALSOFTWARE\MBSOFTWARE\.\GENERATEDFILES\DEBUG\MOC_DLGTYPES.CPP
^C:\PROJEKTI\UNIVERSALSOFTWARE\MBSOFTWARE\HISTORY.H
C:\PROJEKTI\UNIVERSALSOFTWARE\MBSOFTWARE\.\GENERATEDFILES\DEBUG\MOC_HISTORY.CPP
^C:\PROJEKTI\UNIVERSALSOFTWARE\MBSOFTWARE\GENERALSETTINGS.H
C:\PROJEKTI\UNIVERSALSOFTWARE\MBSOFTWARE\.\GENERATEDFILES\DEBUG\MOC_GENERALSETTINGS.CPP
^C:\PROJEKTI\UNIVERSALSOFTWARE\MBSOFTWARE\MEASURAND.H
C:\PROJEKTI\UNIVERSALSOFTWARE\MBSOFTWARE\.\GENERATEDFILES\DEBUG\MOC_MEASURAND.CPP
^C:\PROJEKTI\UNIVERSALSOFTWARE\MBSOFTWARE\LOGWINDOW.H
C:\PROJEKTI\UNIVERSALSOFTWARE\MBSOFTWARE\.\GENERATEDFILES\DEBUG\MOC_LOGWINDOW.CPP
^C:\PROJEKTI\UNIVERSALSOFTWARE\MBSOFTWARE\SERIAL.H
C:\PROJEKTI\UNIVERSALSOFTWARE\MBSOFTWARE\.\GENERATEDFILES\DEBUG\MOC_SERIAL.CPP
^C:\PROJEKTI\UNIVERSALSOFTWARE\MBSOFTWARE\SMCDRIVE.H
C:\PROJEKTI\UNIVERSALSOFTWARE\MBSOFTWARE\.\GENERATEDFILES\DEBUG\MOC_SMCDRIVE.CPP
^C:\PROJEKTI\UNIVERSALSOFTWARE\MBSOFTWARE\POINTGRAY.H
C:\PROJEKTI\UNIVERSALSOFTWARE\MBSOFTWARE\.\GENERATEDFILES\DEBUG\MOC_POINTGRAY.CPP
^C:\PROJEKTI\UNIVERSALSOFTWARE\MBSOFTWARE\STATUSBOX.H
C:\PROJEKTI\UNIVERSALSOFTWARE\MBSOFTWARE\.\GENERATEDFILES\DEBUG\MOC_STATUSBOX.CPP
^C:\PROJEKTI\UNIVERSALSOFTWARE\MBSOFTWARE\SERVER.H
C:\PROJEKTI\UNIVERSALSOFTWARE\MBSOFTWARE\.\GENERATEDFILES\DEBUG\MOC_SERVER.CPP
^C:\PROJEKTI\UNIVERSALSOFTWARE\MBSOFTWARE\TCP.H
C:\PROJEKTI\UNIVERSALSOFTWARE\MBSOFTWARE\.\GENERATEDFILES\DEBUG\MOC_TCP.CPP
^C:\PROJEKTI\UNIVERSALSOFTWARE\MBSOFTWARE\LOGINWINDOW.H
C:\PROJEKTI\UNIVERSALSOFTWARE\MBSOFTWARE\.\GENERATEDFILES\DEBUG\MOC_LOGINWINDOW.CPP
